<svg id="dupliquer" xmlns="http://www.w3.org/2000/svg" width="40" height="40" viewBox="0 0 40 40">
  <g id="Groupe_91" data-name="Groupe 91">
    <g id="Composant_34_1" data-name="Composant 34 – 1">
      <g id="Ellipse_359" data-name="Ellipse 359" fill="rgba(251,99,64,0.13)" stroke="#fb6340" stroke-width="1">
        <circle cx="20" cy="20" r="20" stroke="none"/>
        <circle cx="20" cy="20" r="19.5" fill="none"/>
      </g>
    </g>
    <g id="copy" transform="translate(8 8)">
      <rect id="Rectangle_1583" data-name="Rectangle 1583" width="13" height="13" rx="2" transform="translate(9 9)" fill="none" stroke="#fb6340" stroke-linecap="round" stroke-linejoin="round" stroke-width="2"/>
      <path id="Tracé_537" data-name="Tracé 537" d="M5,15H4a2,2,0,0,1-2-2V4A2,2,0,0,1,4,2h9a2,2,0,0,1,2,2V5" fill="none" stroke="#fb6340" stroke-linecap="round" stroke-linejoin="round" stroke-width="2"/>
    </g>
  </g>
</svg>
